{
  "subtreeRecordMap": {
    "block": {
      "27fa9add-6ec7-433a-88c9-58279f5055c3": {
        "role": "reader",
        "value": {
          "id": "27fa9add-6ec7-433a-88c9-58279f5055c3",
          "version": 31,
          "type": "page",
          "properties": {
            "title": [
              [
                "Getting Started"
              ]
            ]
          },
          "content": [
            "aa18a070-1d0d-479d-9d63-c7c3bda33b9d",
            "71328beb-aa4a-43c8-8634-12fb6d6626ba",
            "4bed6c10-fd9d-453b-baaf-2b7cbf6ac127",
            "c039c3a4-754c-4def-9b59-76a70a3dc870",
            "7c5a416e-6683-43fa-945b-9fbbb89e668f",
            "02b3c87e-81f7-47ef-a9c4-645a9ffd58b1",
            "46d28596-b981-4289-83b9-189939bcc79a",
            "01802463-c041-4969-8353-c45cfef659cb",
            "8eb9ae7d-1fdd-458e-85b0-cfc60775dca4"
          ],
          "permissions": [
            {
              "role": "editor",
              "type": "space_permission"
            },
            {
              "role": "reader",
              "type": "public_permission"
            }
          ],
          "created_by": "33e41f0b-9c5f-4241-9f62-3e90559ab8f2",
          "created_time": 1511822373382,
          "last_edited_by": "33e41f0b-9c5f-4241-9f62-3e90559ab8f2",
          "last_edited_time": 1512096093826,
          "parent_id": "1f88cc90-92fd-4ce4-bfcd-25daec2ffbbe",
          "parent_table": "space",
          "alive": true
        }
      },
      "aa18a070-1d0d-479d-9d63-c7c3bda33b9d": {
        "role": "reader",
        "value": {
          "id": "aa18a070-1d0d-479d-9d63-c7c3bda33b9d",
          "version": 31,
          "type": "text",
          "properties": {
            "title": [
              [
                "👋  Welcome! This is a private page for you to play around with. "
              ]
            ]
          },
          "created_by": "33e41f0b-9c5f-4241-9f62-3e90559ab8f2",
          "created_time": 1511823546885,
          "last_edited_by": "33e41f0b-9c5f-4241-9f62-3e90559ab8f2",
          "last_edited_time": 1512096091667,
          "parent_id": "27fa9add-6ec7-433a-88c9-58279f5055c3",
          "parent_table": "block",
          "alive": true
        }
      },
      "71328beb-aa4a-43c8-8634-12fb6d6626ba": {
        "role": "reader",
        "value": {
          "id": "71328beb-aa4a-43c8-8634-12fb6d6626ba",
          "version": 31,
          "type": "text",
          "created_by": "33e41f0b-9c5f-4241-9f62-3e90559ab8f2",
          "created_time": 1512096093826,
          "last_edited_by": "33e41f0b-9c5f-4241-9f62-3e90559ab8f2",
          "last_edited_time": 1512096093826,
          "parent_id": "27fa9add-6ec7-433a-88c9-58279f5055c3",
          "parent_table": "block",
          "alive": true
        }
      },
      "4bed6c10-fd9d-453b-baaf-2b7cbf6ac127": {
        "role": "reader",
        "value": {
          "id": "4bed6c10-fd9d-453b-baaf-2b7cbf6ac127",
          "version": 31,
          "type": "text",
          "properties": {
            "title": [
              [
                "Give these things a try:"
              ]
            ]
          },
          "created_by": "4b723c12-e06d-4354-9951-aef27cabf6f1",
          "created_time": 1511900745713,
          "last_edited_by": "33e41f0b-9c5f-4241-9f62-3e90559ab8f2",
          "last_edited_time": 1512096099066,
          "parent_id": "27fa9add-6ec7-433a-88c9-58279f5055c3",
          "parent_table": "block",
          "alive": true
        }
      },
      "c039c3a4-754c-4def-9b59-76a70a3dc870": {
        "role": "reader",
        "value": {
          "id": "c039c3a4-754c-4def-9b59-76a70a3dc870",
          "version": 31,
          "type": "to_do",
          "properties": {
            "title": [
              [
                "Create an account"
              ]
            ],
            "checked": [
              [
                "Yes"
              ]
            ]
          },
          "created_by": "4b723c12-e06d-4354-9951-aef27cabf6f1",
          "created_time": 1511834959731,
          "last_edited_by": "4b723c12-e06d-4354-9951-aef27cabf6f1",
          "last_edited_time": 1511899908706,
          "parent_id": "27fa9add-6ec7-433a-88c9-58279f5055c3",
          "parent_table": "block",
          "alive": true
        }
      },
      "7c5a416e-6683-43fa-945b-9fbbb89e668f": {
        "role": "reader",
        "value": {
          "id": "7c5a416e-6683-43fa-945b-9fbbb89e668f",
          "version": 31,
          "type": "to_do",
          "properties": {
            "title": [
              [
                "Press and hold to reorder anything (when the keyboard is closed)"
              ]
            ]
          },
          "created_by": "4b723c12-e06d-4354-9951-aef27cabf6f1",
          "created_time": 1511836928785,
          "last_edited_by": "e894aec7-c5cc-4aa2-8c20-fb602fa7777a",
          "last_edited_time": 1528311915924,
          "parent_id": "27fa9add-6ec7-433a-88c9-58279f5055c3",
          "parent_table": "block",
          "alive": true
        }
      },
      "02b3c87e-81f7-47ef-a9c4-645a9ffd58b1": {
        "role": "reader",
        "value": {
          "id": "02b3c87e-81f7-47ef-a9c4-645a9ffd58b1",
          "version": 31,
          "type": "to_do",
          "properties": {
            "title": [
              [
                "Insert a sub page"
              ]
            ]
          },
          "content": [
            "7e2e22c5-da1f-4533-ab91-fdccc6665f50"
          ],
          "created_by": "4b723c12-e06d-4354-9951-aef27cabf6f1",
          "created_time": 1511899055061,
          "last_edited_by": "4b723c12-e06d-4354-9951-aef27cabf6f1",
          "last_edited_time": 1511908986236,
          "parent_id": "27fa9add-6ec7-433a-88c9-58279f5055c3",
          "parent_table": "block",
          "alive": true
        }
      },
      "7e2e22c5-da1f-4533-ab91-fdccc6665f50": {
        "role": "reader",
        "value": {
          "id": "7e2e22c5-da1f-4533-ab91-fdccc6665f50",
          "version": 31,
          "type": "page",
          "properties": {
            "title": [
              [
                "Example sub page"
              ]
            ]
          },
          "content": [
            "b31caef5-bc21-4da7-bf03-be1dd4fcc238",
            "f8945482-a9f5-401a-a85e-6bfbc2428ab5"
          ],
          "created_by": "4b723c12-e06d-4354-9951-aef27cabf6f1",
          "created_time": 1511835865684,
          "last_edited_by": "33e41f0b-9c5f-4241-9f62-3e90559ab8f2",
          "last_edited_time": 1512689559950,
          "parent_id": "02b3c87e-81f7-47ef-a9c4-645a9ffd58b1",
          "parent_table": "block",
          "alive": true
        }
      },
      "b31caef5-bc21-4da7-bf03-be1dd4fcc238": {
        "role": "reader",
        "value": {
          "id": "b31caef5-bc21-4da7-bf03-be1dd4fcc238",
          "version": 31,
          "type": "text",
          "properties": {
            "title": [
              [
                "In Notion, pages can contain sub pages. It's a great way to organize things without messy folders!"
              ]
            ]
          },
          "created_by": "4b723c12-e06d-4354-9951-aef27cabf6f1",
          "created_time": 1511835877384,
          "last_edited_by": "33e41f0b-9c5f-4241-9f62-3e90559ab8f2",
          "last_edited_time": 1512689555964,
          "parent_id": "7e2e22c5-da1f-4533-ab91-fdccc6665f50",
          "parent_table": "block",
          "alive": true
        }
      },
      "f8945482-a9f5-401a-a85e-6bfbc2428ab5": {
        "role": "reader",
        "value": {
          "id": "f8945482-a9f5-401a-a85e-6bfbc2428ab5",
          "version": 31,
          "type": "text",
          "properties": {
            "title": [
              [
                "To go back, click the link at the top 👆"
              ]
            ]
          },
          "created_by": "4b723c12-e06d-4354-9951-aef27cabf6f1",
          "created_time": 1511899781244,
          "last_edited_by": "33e41f0b-9c5f-4241-9f62-3e90559ab8f2",
          "last_edited_time": 1512689555964,
          "parent_id": "7e2e22c5-da1f-4533-ab91-fdccc6665f50",
          "parent_table": "block",
          "alive": true
        }
      },
      "46d28596-b981-4289-83b9-189939bcc79a": {
        "role": "reader",
        "value": {
          "id": "46d28596-b981-4289-83b9-189939bcc79a",
          "version": 31,
          "type": "to_do",
          "properties": {
            "title": [
              [
                "Click the ☰ in the top-left to open your sidebar"
              ]
            ]
          },
          "created_by": "4b723c12-e06d-4354-9951-aef27cabf6f1",
          "created_time": 1511834997587,
          "last_edited_by": "33e41f0b-9c5f-4241-9f62-3e90559ab8f2",
          "last_edited_time": 1512689580840,
          "parent_id": "27fa9add-6ec7-433a-88c9-58279f5055c3",
          "parent_table": "block",
          "alive": true
        }
      },
      "01802463-c041-4969-8353-c45cfef659cb": {
        "role": "reader",
        "value": {
          "id": "01802463-c041-4969-8353-c45cfef659cb",
          "version": 31,
          "type": "text",
          "created_by": "4b723c12-e06d-4354-9951-aef27cabf6f1",
          "created_time": 1511899900008,
          "last_edited_by": "4b723c12-e06d-4354-9951-aef27cabf6f1",
          "last_edited_time": 1511899900008,
          "parent_id": "27fa9add-6ec7-433a-88c9-58279f5055c3",
          "parent_table": "block",
          "alive": true
        }
      },
      "8eb9ae7d-1fdd-458e-85b0-cfc60775dca4": {
        "role": "reader",
        "value": {
          "id": "8eb9ae7d-1fdd-458e-85b0-cfc60775dca4",
          "version": 31,
          "type": "text",
          "properties": {
            "title": [
              [
                "Have a question? Click the help button in your sidebar and message us!"
              ]
            ]
          },
          "format": {
            "block_color": "gray"
          },
          "created_by": "4b723c12-e06d-4354-9951-aef27cabf6f1",
          "created_time": 1511899107315,
          "last_edited_by": "33e41f0b-9c5f-4241-9f62-3e90559ab8f2",
          "last_edited_time": 1512096206464,
          "parent_id": "27fa9add-6ec7-433a-88c9-58279f5055c3",
          "parent_table": "block",
          "alive": true
        }
      }
    },
    "space": {}
  }
}