{
  "subtreeRecordMap": {
    "block": {
      "7e89f436-7aac-4f66-b0a6-6e65ec868d2a": {
        "role": "reader",
        "value": {
          "id": "7e89f436-7aac-4f66-b0a6-6e65ec868d2a",
          "version": 23,
          "type": "page",
          "properties": {
            "title": [
              [
                "Quick Note"
              ]
            ]
          },
          "content": [
            "5db195a0-3ec1-4fef-9c3e-c098d93949c8",
            "f5df15fe-1cbf-49f5-839c-b1d220b14f82",
            "18a2be2d-dbaa-411d-a63b-e9c189b2bb44",
            "c3995c88-ba43-4719-b5e9-0c007079a6d9",
            "c06bf01b-0834-44bf-9050-5f8caaf6b07c",
            "3e7bf7db-afd7-4143-a37d-466e3e367d60",
            "977274a7-d05e-4eb1-a909-28cc81255d3b",
            "f583b5fd-0aeb-4b20-8b20-f8133df3711f",
            "90b9bd8f-1823-41e1-9ed1-a0826c90c5ea",
            "22b51696-4417-48f5-acaa-f9498555d5fe",
            "1adfc8cf-7e49-4dbd-82e8-18f7913710c5",
            "9e74cde0-5cb6-497a-85d6-1d429905d59e",
            "429cf4e4-3904-48ac-b808-aa6c58fa28b6",
            "087fcadb-bd88-4a10-8b8b-5886992022e7",
            "ad374852-d3a7-4517-85ea-98039e00a87c",
            "ea0d90ef-9908-4958-85fa-129c914e7ec9"
          ],
          "format": {
            "page_icon": "📌"
          },
          "permissions": [
            {
              "role": "reader",
              "type": "public_permission"
            },
            {
              "role": "editor",
              "type": "space_permission"
            }
          ],
          "created_by": "e894aec7-c5cc-4aa2-8c20-fb602fa7777a",
          "created_time": 1520969449782,
          "last_edited_by": "e894aec7-c5cc-4aa2-8c20-fb602fa7777a",
          "last_edited_time": 1521072680647,
          "parent_id": "1f88cc90-92fd-4ce4-bfcd-25daec2ffbbe",
          "parent_table": "space",
          "alive": true
        }
      },
      "5db195a0-3ec1-4fef-9c3e-c098d93949c8": {
        "role": "reader",
        "value": {
          "id": "5db195a0-3ec1-4fef-9c3e-c098d93949c8",
          "version": 23,
          "type": "text",
          "properties": {
            "title": [
              [
                "Quickly create a rich document."
              ]
            ]
          },
          "format": {
            "block_color": "gray"
          },
          "created_by": "e894aec7-c5cc-4aa2-8c20-fb602fa7777a",
          "created_time": 1520981873189,
          "last_edited_by": "e894aec7-c5cc-4aa2-8c20-fb602fa7777a",
          "last_edited_time": 1520981938233,
          "parent_id": "7e89f436-7aac-4f66-b0a6-6e65ec868d2a",
          "parent_table": "block",
          "alive": true
        }
      },
      "f5df15fe-1cbf-49f5-839c-b1d220b14f82": {
        "role": "reader",
        "value": {
          "id": "f5df15fe-1cbf-49f5-839c-b1d220b14f82",
          "version": 23,
          "type": "header",
          "properties": {
            "title": [
              [
                "Jot down some text"
              ]
            ]
          },
          "created_by": "e894aec7-c5cc-4aa2-8c20-fb602fa7777a",
          "created_time": 1520971796806,
          "last_edited_by": "e894aec7-c5cc-4aa2-8c20-fb602fa7777a",
          "last_edited_time": 1520981870867,
          "parent_id": "7e89f436-7aac-4f66-b0a6-6e65ec868d2a",
          "parent_table": "block",
          "alive": true
        }
      },
      "18a2be2d-dbaa-411d-a63b-e9c189b2bb44": {
        "role": "reader",
        "value": {
          "id": "18a2be2d-dbaa-411d-a63b-e9c189b2bb44",
          "version": 23,
          "type": "divider",
          "created_by": "e894aec7-c5cc-4aa2-8c20-fb602fa7777a",
          "created_time": 1520981819352,
          "last_edited_by": "e894aec7-c5cc-4aa2-8c20-fb602fa7777a",
          "last_edited_time": 1520981819875,
          "parent_id": "7e89f436-7aac-4f66-b0a6-6e65ec868d2a",
          "parent_table": "block",
          "alive": true
        }
      },
      "c3995c88-ba43-4719-b5e9-0c007079a6d9": {
        "role": "reader",
        "value": {
          "id": "c3995c88-ba43-4719-b5e9-0c007079a6d9",
          "version": 23,
          "type": "text",
          "properties": {
            "title": [
              [
                "They found Mary, as usual, deep in the study of thorough-bass and human nature; and had some extracts to admire, and some new observations of threadbare morality to listen to. Catherine and Lydia had information for them of a different sort."
              ]
            ]
          },
          "created_by": "e894aec7-c5cc-4aa2-8c20-fb602fa7777a",
          "created_time": 1520975690325,
          "last_edited_by": "e894aec7-c5cc-4aa2-8c20-fb602fa7777a",
          "last_edited_time": 1520975810694,
          "parent_id": "7e89f436-7aac-4f66-b0a6-6e65ec868d2a",
          "parent_table": "block",
          "alive": true
        }
      },
      "c06bf01b-0834-44bf-9050-5f8caaf6b07c": {
        "role": "reader",
        "value": {
          "id": "c06bf01b-0834-44bf-9050-5f8caaf6b07c",
          "version": 23,
          "type": "header",
          "properties": {
            "title": [
              [
                "Make a to-do list"
              ]
            ]
          },
          "created_by": "e894aec7-c5cc-4aa2-8c20-fb602fa7777a",
          "created_time": 1520975286299,
          "last_edited_by": "e894aec7-c5cc-4aa2-8c20-fb602fa7777a",
          "last_edited_time": 1520981870867,
          "parent_id": "7e89f436-7aac-4f66-b0a6-6e65ec868d2a",
          "parent_table": "block",
          "alive": true
        }
      },
      "3e7bf7db-afd7-4143-a37d-466e3e367d60": {
        "role": "reader",
        "value": {
          "id": "3e7bf7db-afd7-4143-a37d-466e3e367d60",
          "version": 23,
          "type": "divider",
          "created_by": "e894aec7-c5cc-4aa2-8c20-fb602fa7777a",
          "created_time": 1520981821741,
          "last_edited_by": "e894aec7-c5cc-4aa2-8c20-fb602fa7777a",
          "last_edited_time": 1520981822213,
          "parent_id": "7e89f436-7aac-4f66-b0a6-6e65ec868d2a",
          "parent_table": "block",
          "alive": true
        }
      },
      "977274a7-d05e-4eb1-a909-28cc81255d3b": {
        "role": "reader",
        "value": {
          "id": "977274a7-d05e-4eb1-a909-28cc81255d3b",
          "version": 23,
          "type": "to_do",
          "properties": {
            "title": [
              [
                "Wake up"
              ]
            ]
          },
          "created_by": "e894aec7-c5cc-4aa2-8c20-fb602fa7777a",
          "created_time": 1520975317287,
          "last_edited_by": "e894aec7-c5cc-4aa2-8c20-fb602fa7777a",
          "last_edited_time": 1520975733892,
          "parent_id": "7e89f436-7aac-4f66-b0a6-6e65ec868d2a",
          "parent_table": "block",
          "alive": true
        }
      },
      "f583b5fd-0aeb-4b20-8b20-f8133df3711f": {
        "role": "reader",
        "value": {
          "id": "f583b5fd-0aeb-4b20-8b20-f8133df3711f",
          "version": 23,
          "type": "to_do",
          "properties": {
            "title": [
              [
                "Eat breakfast"
              ]
            ]
          },
          "created_by": "e894aec7-c5cc-4aa2-8c20-fb602fa7777a",
          "created_time": 1520975318693,
          "last_edited_by": "e894aec7-c5cc-4aa2-8c20-fb602fa7777a",
          "last_edited_time": 1520975738588,
          "parent_id": "7e89f436-7aac-4f66-b0a6-6e65ec868d2a",
          "parent_table": "block",
          "alive": true
        }
      },
      "90b9bd8f-1823-41e1-9ed1-a0826c90c5ea": {
        "role": "reader",
        "value": {
          "id": "90b9bd8f-1823-41e1-9ed1-a0826c90c5ea",
          "version": 23,
          "type": "to_do",
          "properties": {
            "title": [
              [
                "Brush teeth"
              ]
            ],
            "checked": [
              [
                "Yes"
              ]
            ]
          },
          "created_by": "e894aec7-c5cc-4aa2-8c20-fb602fa7777a",
          "created_time": 1520975319455,
          "last_edited_by": "e894aec7-c5cc-4aa2-8c20-fb602fa7777a",
          "last_edited_time": 1520975743626,
          "parent_id": "7e89f436-7aac-4f66-b0a6-6e65ec868d2a",
          "parent_table": "block",
          "alive": true
        }
      },
      "22b51696-4417-48f5-acaa-f9498555d5fe": {
        "role": "reader",
        "value": {
          "id": "22b51696-4417-48f5-acaa-f9498555d5fe",
          "version": 22,
          "type": "header",
          "properties": {
            "title": [
              [
                "Create sub-pages"
              ]
            ]
          },
          "created_by": "e894aec7-c5cc-4aa2-8c20-fb602fa7777a",
          "created_time": 1521072652009,
          "last_edited_by": "e894aec7-c5cc-4aa2-8c20-fb602fa7777a",
          "last_edited_time": 1521072680647,
          "parent_id": "7e89f436-7aac-4f66-b0a6-6e65ec868d2a",
          "parent_table": "block",
          "alive": true
        }
      },
      "1adfc8cf-7e49-4dbd-82e8-18f7913710c5": {
        "role": "reader",
        "value": {
          "id": "1adfc8cf-7e49-4dbd-82e8-18f7913710c5",
          "version": 22,
          "type": "divider",
          "created_by": "e894aec7-c5cc-4aa2-8c20-fb602fa7777a",
          "created_time": 1521072673173,
          "last_edited_by": "e894aec7-c5cc-4aa2-8c20-fb602fa7777a",
          "last_edited_time": 1521072680647,
          "parent_id": "7e89f436-7aac-4f66-b0a6-6e65ec868d2a",
          "parent_table": "block",
          "alive": true
        }
      },
      "9e74cde0-5cb6-497a-85d6-1d429905d59e": {
        "role": "reader",
        "value": {
          "id": "9e74cde0-5cb6-497a-85d6-1d429905d59e",
          "version": 22,
          "type": "page",
          "properties": {
            "title": [
              [
                "Sub Page"
              ]
            ]
          },
          "content": [
            "4db194c6-ebe6-4cb9-99bd-567e034340b5",
            "c193f88a-713f-43d6-81c7-4de6588b12de",
            "7ca4c93c-fd98-4ee2-8811-2d2306cceceb"
          ],
          "created_by": "e894aec7-c5cc-4aa2-8c20-fb602fa7777a",
          "created_time": 1521072659830,
          "last_edited_by": "e894aec7-c5cc-4aa2-8c20-fb602fa7777a",
          "last_edited_time": 1521072680647,
          "parent_id": "7e89f436-7aac-4f66-b0a6-6e65ec868d2a",
          "parent_table": "block",
          "alive": true
        }
      },
      "4db194c6-ebe6-4cb9-99bd-567e034340b5": {
        "role": "reader",
        "value": {
          "id": "4db194c6-ebe6-4cb9-99bd-567e034340b5",
          "version": 22,
          "type": "bulleted_list",
          "created_by": "e894aec7-c5cc-4aa2-8c20-fb602fa7777a",
          "created_time": 1521072667807,
          "last_edited_by": "e894aec7-c5cc-4aa2-8c20-fb602fa7777a",
          "last_edited_time": 1521072669288,
          "parent_id": "9e74cde0-5cb6-497a-85d6-1d429905d59e",
          "parent_table": "block",
          "alive": true
        }
      },
      "c193f88a-713f-43d6-81c7-4de6588b12de": {
        "role": "reader",
        "value": {
          "id": "c193f88a-713f-43d6-81c7-4de6588b12de",
          "version": 22,
          "type": "bulleted_list",
          "created_by": "e894aec7-c5cc-4aa2-8c20-fb602fa7777a",
          "created_time": 1521072669819,
          "last_edited_by": "e894aec7-c5cc-4aa2-8c20-fb602fa7777a",
          "last_edited_time": 1521072669821,
          "parent_id": "9e74cde0-5cb6-497a-85d6-1d429905d59e",
          "parent_table": "block",
          "alive": true
        }
      },
      "7ca4c93c-fd98-4ee2-8811-2d2306cceceb": {
        "role": "reader",
        "value": {
          "id": "7ca4c93c-fd98-4ee2-8811-2d2306cceceb",
          "version": 22,
          "type": "bulleted_list",
          "created_by": "e894aec7-c5cc-4aa2-8c20-fb602fa7777a",
          "created_time": 1521072670280,
          "last_edited_by": "e894aec7-c5cc-4aa2-8c20-fb602fa7777a",
          "last_edited_time": 1521072670283,
          "parent_id": "9e74cde0-5cb6-497a-85d6-1d429905d59e",
          "parent_table": "block",
          "alive": true
        }
      },
      "429cf4e4-3904-48ac-b808-aa6c58fa28b6": {
        "role": "reader",
        "value": {
          "id": "429cf4e4-3904-48ac-b808-aa6c58fa28b6",
          "version": 23,
          "type": "header",
          "properties": {
            "title": [
              [
                "Embed links"
              ]
            ]
          },
          "created_by": "e894aec7-c5cc-4aa2-8c20-fb602fa7777a",
          "created_time": 1520975493562,
          "last_edited_by": "e894aec7-c5cc-4aa2-8c20-fb602fa7777a",
          "last_edited_time": 1520981870867,
          "parent_id": "7e89f436-7aac-4f66-b0a6-6e65ec868d2a",
          "parent_table": "block",
          "alive": true
        }
      },
      "087fcadb-bd88-4a10-8b8b-5886992022e7": {
        "role": "reader",
        "value": {
          "id": "087fcadb-bd88-4a10-8b8b-5886992022e7",
          "version": 23,
          "type": "divider",
          "created_by": "e894aec7-c5cc-4aa2-8c20-fb602fa7777a",
          "created_time": 1520981824168,
          "last_edited_by": "e894aec7-c5cc-4aa2-8c20-fb602fa7777a",
          "last_edited_time": 1520981824626,
          "parent_id": "7e89f436-7aac-4f66-b0a6-6e65ec868d2a",
          "parent_table": "block",
          "alive": true
        }
      },
      "ad374852-d3a7-4517-85ea-98039e00a87c": {
        "role": "reader",
        "value": {
          "id": "ad374852-d3a7-4517-85ea-98039e00a87c",
          "version": 23,
          "type": "bookmark",
          "properties": {
            "link": [
              [
                "https://www.nytimes.com/2018/03/08/arts/chicago-museums-art.html?rref=collection%2Fsectioncollection%2Ftravel"
              ]
            ],
            "title": [
              [
                "Beyond Frank Lloyd Wright: A Broader View of Art in Chicago"
              ]
            ],
            "description": [
              [
                "\"We had been aware of the Walker exhibit but hadn't quite known how to connect,\" said Steve Weaver, executive director of the Chicago Public Art Group. On April 7 it is hosting a Terra-supported tour of neighborhood murals by Mr. Walker, as well as by artists including Mitchell Caton, Calvin Jones and Justine DeVan, with a stop at the Hyde Park exhibition."
              ]
            ]
          },
          "format": {
            "bookmark_icon": "https://static01.nyt.com/favicon.ico",
            "bookmark_cover": "https://static01.nyt.com/images/2018/03/15/arts/15ARTCHICAGO1/15ARTCHICAGO1-facebookJumbo.jpg"
          },
          "created_by": "e894aec7-c5cc-4aa2-8c20-fb602fa7777a",
          "created_time": 1520975790695,
          "last_edited_by": "e894aec7-c5cc-4aa2-8c20-fb602fa7777a",
          "last_edited_time": 1520975799675,
          "parent_id": "7e89f436-7aac-4f66-b0a6-6e65ec868d2a",
          "parent_table": "block",
          "alive": true
        }
      },
      "ea0d90ef-9908-4958-85fa-129c914e7ec9": {
        "role": "reader",
        "value": {
          "id": "ea0d90ef-9908-4958-85fa-129c914e7ec9",
          "version": 23,
          "type": "bookmark",
          "properties": {
            "link": [
              [
                "https://www.nytimes.com/2018/03/12/travel/havana-cuba.html?rref=collection%2Fsectioncollection%2Ftravel"
              ]
            ],
            "title": [
              [
                "Havana's Symphony of Sound"
              ]
            ],
            "description": [
              [
                "Just before New Year's Eve, my wife and I left our two young children at home with my parents and sneaked down to Havana for a brief getaway. You might be familiar with this uncanny sensation of kidlessness, as if you are getting away with something reckless and potentially illegal."
              ]
            ]
          },
          "format": {
            "bookmark_icon": "https://static01.nyt.com/favicon.ico",
            "bookmark_cover": "https://static01.nyt.com/images/2018/03/18/travel/18cuba2/merlin_102835471_1d88add3-ed44-416f-8e16-5f52dbf1ed17-superJumbo.jpg"
          },
          "created_by": "e894aec7-c5cc-4aa2-8c20-fb602fa7777a",
          "created_time": 1520975600368,
          "last_edited_by": "e894aec7-c5cc-4aa2-8c20-fb602fa7777a",
          "last_edited_time": 1520975601349,
          "parent_id": "7e89f436-7aac-4f66-b0a6-6e65ec868d2a",
          "parent_table": "block",
          "alive": true
        }
      }
    },
    "space": {}
  }
}