{
  "subtreeRecordMap": {
    "block": {
      "0dc73850-a48c-4096-ab71-3eeeda48522e": {
        "role": "reader",
        "value": {
          "id": "0dc73850-a48c-4096-ab71-3eeeda48522e",
          "version": 31,
          "type": "collection_view_page",
          "view_ids": [
            "2ea28d62-6d1f-41eb-a0aa-9dd3de59bf1f",
            "de5db5e1-f30c-4721-8af4-4497130f7eef",
            "1d5c0fc3-e985-46d3-9154-4bc07065fc6d"
          ],
          "collection_id": "2465f591-3856-44c5-b0f9-05b39f57a85c",
          "format": {
            "page_cover_position": 0
          },
          "permissions": [
            {
              "role": "reader",
              "type": "public_permission"
            },
            {
              "role": "editor",
              "type": "space_permission"
            }
          ],
          "created_by": "33e41f0b-9c5f-4241-9f62-3e90559ab8f2",
          "created_time": 1506988082015,
          "last_edited_by": "4b723c12-e06d-4354-9951-aef27cabf6f1",
          "last_edited_time": 1512501468950,
          "parent_id": "1f88cc90-92fd-4ce4-bfcd-25daec2ffbbe",
          "parent_table": "space",
          "alive": true
        }
      },
      "220ab47c-751c-4983-a495-b74a995c3289": {
        "role": "reader",
        "value": {
          "id": "220ab47c-751c-4983-a495-b74a995c3289",
          "version": 31,
          "type": "page",
          "properties": {
            "F.q]": [
              [
                "‣",
                [
                  [
                    "u",
                    "33e41f0b-9c5f-4241-9f62-3e90559ab8f2"
                  ]
                ]
              ]
            ],
            "V1EY": [
              [
                "Dynamics around how markets evolve"
              ]
            ],
            "nez|": [
              [
                "Product,Marketing"
              ]
            ],
            "title": [
              [
                "Bundling and unbundling"
              ]
            ],
            "prop_1": [
              [
                "https://hbr.org/2014/06/how-to-succeed-in-business-by-bundling-and-unbundling",
                [
                  [
                    "a",
                    "https://hbr.org/2014/06/how-to-succeed-in-business-by-bundling-and-unbundling"
                  ]
                ]
              ]
            ],
            "prop_2": [
              [
                "Business"
              ]
            ]
          },
          "content": [
            "bff9d512-5e3c-4efb-b130-761bd8a3de33",
            "9a6a55f4-90e2-4f8a-aedb-2c50c5104485",
            "242f7c89-662a-44ab-a737-6c44074a2c22"
          ],
          "format": {
            "page_sort": {
              "55846dbf-4d76-427f-8c09-f8054fb81833": 0
            }
          },
          "created_by": "33e41f0b-9c5f-4241-9f62-3e90559ab8f2",
          "created_time": 1507936247918,
          "last_edited_by": "4b723c12-e06d-4354-9951-aef27cabf6f1",
          "last_edited_time": 1512501512214,
          "parent_id": "2465f591-3856-44c5-b0f9-05b39f57a85c",
          "parent_table": "collection",
          "alive": true
        }
      },
      "bff9d512-5e3c-4efb-b130-761bd8a3de33": {
        "role": "reader",
        "value": {
          "id": "bff9d512-5e3c-4efb-b130-761bd8a3de33",
          "version": 31,
          "type": "quote",
          "properties": {
            "title": [
              [
                "“There are two ways to make money in business: You can unbundle, or you can bundle.” — Jim Barksdale"
              ]
            ]
          },
          "created_by": "33e41f0b-9c5f-4241-9f62-3e90559ab8f2",
          "created_time": 1507937338985,
          "last_edited_by": "33e41f0b-9c5f-4241-9f62-3e90559ab8f2",
          "last_edited_time": 1511292202738,
          "parent_id": "220ab47c-751c-4983-a495-b74a995c3289",
          "parent_table": "block",
          "alive": true
        }
      },
      "9a6a55f4-90e2-4f8a-aedb-2c50c5104485": {
        "role": "reader",
        "value": {
          "id": "9a6a55f4-90e2-4f8a-aedb-2c50c5104485",
          "version": 31,
          "type": "header",
          "properties": {
            "title": [
              [
                "Notes"
              ]
            ]
          },
          "created_by": "33e41f0b-9c5f-4241-9f62-3e90559ab8f2",
          "created_time": 1511292190151,
          "last_edited_by": "4b723c12-e06d-4354-9951-aef27cabf6f1",
          "last_edited_time": 1512515000089,
          "parent_id": "220ab47c-751c-4983-a495-b74a995c3289",
          "parent_table": "block",
          "alive": true
        }
      },
      "242f7c89-662a-44ab-a737-6c44074a2c22": {
        "role": "reader",
        "value": {
          "id": "242f7c89-662a-44ab-a737-6c44074a2c22",
          "version": 31,
          "type": "bulleted_list",
          "properties": {
            "title": [
              [
                "Markets evolve in two distinct ways over time: "
              ]
            ]
          },
          "content": [
            "3e71d081-9c28-4daf-a1c7-632c3fdfff64",
            "f6aa42d9-ade4-4034-a775-8ff9ccf8e374"
          ],
          "created_by": "33e41f0b-9c5f-4241-9f62-3e90559ab8f2",
          "created_time": 1507937341517,
          "last_edited_by": "33e41f0b-9c5f-4241-9f62-3e90559ab8f2",
          "last_edited_time": 1511292272307,
          "parent_id": "220ab47c-751c-4983-a495-b74a995c3289",
          "parent_table": "block",
          "alive": true
        }
      },
      "3e71d081-9c28-4daf-a1c7-632c3fdfff64": {
        "role": "reader",
        "value": {
          "id": "3e71d081-9c28-4daf-a1c7-632c3fdfff64",
          "version": 31,
          "type": "bulleted_list",
          "properties": {
            "title": [
              [
                "i) products and services are bundled together when the market is fragmented "
              ]
            ]
          },
          "created_by": "33e41f0b-9c5f-4241-9f62-3e90559ab8f2",
          "created_time": 1511292269924,
          "last_edited_by": "33e41f0b-9c5f-4241-9f62-3e90559ab8f2",
          "last_edited_time": 1511292272307,
          "parent_id": "242f7c89-662a-44ab-a737-6c44074a2c22",
          "parent_table": "block",
          "alive": true
        }
      },
      "f6aa42d9-ade4-4034-a775-8ff9ccf8e374": {
        "role": "reader",
        "value": {
          "id": "f6aa42d9-ade4-4034-a775-8ff9ccf8e374",
          "version": 31,
          "type": "bulleted_list",
          "properties": {
            "title": [
              [
                "ii) products and services are unbundled when the quality of individual services are faltering and aren't up to standard"
              ]
            ]
          },
          "created_by": "33e41f0b-9c5f-4241-9f62-3e90559ab8f2",
          "created_time": 1511292272307,
          "last_edited_by": "33e41f0b-9c5f-4241-9f62-3e90559ab8f2",
          "last_edited_time": 1511292279395,
          "parent_id": "242f7c89-662a-44ab-a737-6c44074a2c22",
          "parent_table": "block",
          "alive": true
        }
      },
      "a0e4230b-6f1a-4190-9c5c-52d34638127f": {
        "role": "reader",
        "value": {
          "id": "a0e4230b-6f1a-4190-9c5c-52d34638127f",
          "version": 31,
          "type": "page",
          "properties": {
            "F.q]": [
              [
                "‣",
                [
                  [
                    "u",
                    "d70e781e-50f1-4b3f-9147-80a73ffcb175"
                  ]
                ]
              ]
            ],
            "V1EY": [
              [
                "The potential of software components"
              ]
            ],
            "nez|": [
              [
                "Engineering"
              ]
            ],
            "title": [
              [
                "Software components: only the giants survive"
              ]
            ],
            "prop_1": [
              [
                "http://bwlampson.site/70-SoftwareComponents/70-SoftwareComponents.pdf",
                [
                  [
                    "a",
                    "http://bwlampson.site/70-SoftwareComponents/70-SoftwareComponents.pdf"
                  ]
                ]
              ]
            ],
            "prop_2": [
              [
                "Engineering"
              ]
            ]
          },
          "content": [
            "fc1fe787-6e45-4b13-a4bd-d9013168df34",
            "2cb27151-39e2-4106-9a1b-9d95a326ddac",
            "43e6955b-d425-4ab6-b6a6-259802d10310"
          ],
          "format": {
            "page_sort": {
              "55846dbf-4d76-427f-8c09-f8054fb81833": 1
            }
          },
          "created_by": "33e41f0b-9c5f-4241-9f62-3e90559ab8f2",
          "created_time": 1507936304436,
          "last_edited_by": "4b723c12-e06d-4354-9951-aef27cabf6f1",
          "last_edited_time": 1512515006056,
          "parent_id": "2465f591-3856-44c5-b0f9-05b39f57a85c",
          "parent_table": "collection",
          "alive": true
        }
      },
      "fc1fe787-6e45-4b13-a4bd-d9013168df34": {
        "role": "reader",
        "value": {
          "id": "fc1fe787-6e45-4b13-a4bd-d9013168df34",
          "version": 31,
          "type": "header",
          "properties": {
            "title": [
              [
                "Notes"
              ]
            ]
          },
          "created_by": "33e41f0b-9c5f-4241-9f62-3e90559ab8f2",
          "created_time": 1511292703109,
          "last_edited_by": "4b723c12-e06d-4354-9951-aef27cabf6f1",
          "last_edited_time": 1512515003355,
          "parent_id": "a0e4230b-6f1a-4190-9c5c-52d34638127f",
          "parent_table": "block",
          "alive": true
        }
      },
      "2cb27151-39e2-4106-9a1b-9d95a326ddac": {
        "role": "reader",
        "value": {
          "id": "2cb27151-39e2-4106-9a1b-9d95a326ddac",
          "version": 31,
          "type": "bulleted_list",
          "properties": {
            "title": [
              [
                "..."
              ]
            ]
          },
          "created_by": "33e41f0b-9c5f-4241-9f62-3e90559ab8f2",
          "created_time": 1511292704180,
          "last_edited_by": "4b723c12-e06d-4354-9951-aef27cabf6f1",
          "last_edited_time": 1512515009090,
          "parent_id": "a0e4230b-6f1a-4190-9c5c-52d34638127f",
          "parent_table": "block",
          "alive": true
        }
      },
      "43e6955b-d425-4ab6-b6a6-259802d10310": {
        "role": "reader",
        "value": {
          "id": "43e6955b-d425-4ab6-b6a6-259802d10310",
          "version": 31,
          "type": "bulleted_list",
          "properties": {
            "title": [
              [
                "..."
              ]
            ]
          },
          "created_by": "33e41f0b-9c5f-4241-9f62-3e90559ab8f2",
          "created_time": 1511292715156,
          "last_edited_by": "4b723c12-e06d-4354-9951-aef27cabf6f1",
          "last_edited_time": 1512515011067,
          "parent_id": "a0e4230b-6f1a-4190-9c5c-52d34638127f",
          "parent_table": "block",
          "alive": true
        }
      },
      "1d52076a-5fd1-4e7c-b529-45a77e3bb429": {
        "role": "reader",
        "value": {
          "id": "1d52076a-5fd1-4e7c-b529-45a77e3bb429",
          "version": 31,
          "type": "page",
          "properties": {
            "F.q]": [
              [
                "‣",
                [
                  [
                    "u",
                    "e0d8983d-9b38-4f83-889d-7d4fc44d4f62"
                  ]
                ]
              ]
            ],
            "V1EY": [
              [
                "Great summary of what makes RN different"
              ]
            ],
            "nez|": [
              [
                "Engineering"
              ]
            ],
            "title": [
              [
                "Swift vs. React Native performance"
              ]
            ],
            "prop_1": [
              [
                "https://medium.com/the-react-native-log/comparing-the-performance-between-native-ios-swift-and-react-native-7b5490d363e2",
                [
                  [
                    "a",
                    "https://medium.com/the-react-native-log/comparing-the-performance-between-native-ios-swift-and-react-native-7b5490d363e2"
                  ]
                ]
              ]
            ],
            "prop_2": [
              [
                "Engineering"
              ]
            ]
          },
          "content": [
            "33c5158b-3e61-409e-8050-83bfb6bbbd2b",
            "116102f1-58fe-4fd3-9402-78cc8dc77d3e",
            "02f62dfb-f01c-4d18-bf70-3e9db4e32f40"
          ],
          "format": {
            "page_sort": {
              "55846dbf-4d76-427f-8c09-f8054fb81833": 3
            }
          },
          "created_by": "33e41f0b-9c5f-4241-9f62-3e90559ab8f2",
          "created_time": 1507936687128,
          "last_edited_by": "6ef08d7f-695a-4ded-9aad-108a7411a508",
          "last_edited_time": 1528330225058,
          "parent_id": "2465f591-3856-44c5-b0f9-05b39f57a85c",
          "parent_table": "collection",
          "alive": true
        }
      },
      "33c5158b-3e61-409e-8050-83bfb6bbbd2b": {
        "role": "reader",
        "value": {
          "id": "33c5158b-3e61-409e-8050-83bfb6bbbd2b",
          "version": 31,
          "type": "header",
          "properties": {
            "title": [
              [
                "Notes"
              ]
            ]
          },
          "created_by": "33e41f0b-9c5f-4241-9f62-3e90559ab8f2",
          "created_time": 1511292703109,
          "last_edited_by": "4b723c12-e06d-4354-9951-aef27cabf6f1",
          "last_edited_time": 1512515015636,
          "parent_id": "1d52076a-5fd1-4e7c-b529-45a77e3bb429",
          "parent_table": "block",
          "alive": true
        }
      },
      "116102f1-58fe-4fd3-9402-78cc8dc77d3e": {
        "role": "reader",
        "value": {
          "id": "116102f1-58fe-4fd3-9402-78cc8dc77d3e",
          "version": 31,
          "type": "bulleted_list",
          "properties": {
            "title": [
              [
                "..."
              ]
            ]
          },
          "created_by": "33e41f0b-9c5f-4241-9f62-3e90559ab8f2",
          "created_time": 1511292704180,
          "last_edited_by": "4b723c12-e06d-4354-9951-aef27cabf6f1",
          "last_edited_time": 1512515015636,
          "parent_id": "1d52076a-5fd1-4e7c-b529-45a77e3bb429",
          "parent_table": "block",
          "alive": true
        }
      },
      "02f62dfb-f01c-4d18-bf70-3e9db4e32f40": {
        "role": "reader",
        "value": {
          "id": "02f62dfb-f01c-4d18-bf70-3e9db4e32f40",
          "version": 31,
          "type": "bulleted_list",
          "properties": {
            "title": [
              [
                "..."
              ]
            ]
          },
          "created_by": "33e41f0b-9c5f-4241-9f62-3e90559ab8f2",
          "created_time": 1511292715156,
          "last_edited_by": "4b723c12-e06d-4354-9951-aef27cabf6f1",
          "last_edited_time": 1512515015636,
          "parent_id": "1d52076a-5fd1-4e7c-b529-45a77e3bb429",
          "parent_table": "block",
          "alive": true
        }
      },
      "dff54b05-972a-441b-b103-c7566f3ebc79": {
        "role": "reader",
        "value": {
          "id": "dff54b05-972a-441b-b103-c7566f3ebc79",
          "version": 4,
          "type": "page",
          "properties": {
            "V1EY": [
              [
                "Step by step tutorial"
              ]
            ],
            "nez|": [
              [
                "Engineering"
              ]
            ],
            "title": [
              [
                "How I got started with shaders (Non-Scary Shader Intro)"
              ]
            ],
            "prop_1": [
              [
                "https://www.patreon.com/posts/how-i-got-with-19042499",
                [
                  [
                    "a",
                    "https://www.patreon.com/posts/how-i-got-with-19042499"
                  ]
                ]
              ]
            ]
          },
          "content": [
            "3e000761-d8ed-4fbf-9e14-fd7a6db36c39",
            "b9ab4f4d-b1f2-4f5e-a8b7-f3350a2bac76",
            "9d475885-b493-403c-afa3-9edebe83db37"
          ],
          "created_by": "6ef08d7f-695a-4ded-9aad-108a7411a508",
          "created_time": 1528330227091,
          "last_edited_by": "6ef08d7f-695a-4ded-9aad-108a7411a508",
          "last_edited_time": 1528330325875,
          "parent_id": "2465f591-3856-44c5-b0f9-05b39f57a85c",
          "parent_table": "collection",
          "alive": true
        }
      },
      "3e000761-d8ed-4fbf-9e14-fd7a6db36c39": {
        "role": "reader",
        "value": {
          "id": "3e000761-d8ed-4fbf-9e14-fd7a6db36c39",
          "version": 4,
          "type": "header",
          "properties": {
            "title": [
              [
                "Notes"
              ]
            ]
          },
          "created_by": "6ef08d7f-695a-4ded-9aad-108a7411a508",
          "created_time": 1528330243594,
          "last_edited_by": "6ef08d7f-695a-4ded-9aad-108a7411a508",
          "last_edited_time": 1528330269151,
          "parent_id": "dff54b05-972a-441b-b103-c7566f3ebc79",
          "parent_table": "block",
          "alive": true
        }
      },
      "b9ab4f4d-b1f2-4f5e-a8b7-f3350a2bac76": {
        "role": "reader",
        "value": {
          "id": "b9ab4f4d-b1f2-4f5e-a8b7-f3350a2bac76",
          "version": 4,
          "type": "bulleted_list",
          "properties": {
            "title": [
              [
                "..."
              ]
            ]
          },
          "created_by": "6ef08d7f-695a-4ded-9aad-108a7411a508",
          "created_time": 1528330248227,
          "last_edited_by": "6ef08d7f-695a-4ded-9aad-108a7411a508",
          "last_edited_time": 1528330251564,
          "parent_id": "dff54b05-972a-441b-b103-c7566f3ebc79",
          "parent_table": "block",
          "alive": true
        }
      },
      "9d475885-b493-403c-afa3-9edebe83db37": {
        "role": "reader",
        "value": {
          "id": "9d475885-b493-403c-afa3-9edebe83db37",
          "version": 4,
          "type": "bulleted_list",
          "properties": {
            "title": [
              [
                "..."
              ]
            ]
          },
          "created_by": "6ef08d7f-695a-4ded-9aad-108a7411a508",
          "created_time": 1528330251921,
          "last_edited_by": "6ef08d7f-695a-4ded-9aad-108a7411a508",
          "last_edited_time": 1528330253083,
          "parent_id": "dff54b05-972a-441b-b103-c7566f3ebc79",
          "parent_table": "block",
          "alive": true
        }
      },
      "9f586a24-d648-44ff-a5e2-279e2ca6a0f7": {
        "role": "reader",
        "value": {
          "id": "9f586a24-d648-44ff-a5e2-279e2ca6a0f7",
          "version": 29,
          "type": "page",
          "properties": {
            "V1EY": [
              [
                "Strategies for pricing SAAS products"
              ]
            ],
            "nez|": [
              [
                "Product"
              ]
            ],
            "title": [
              [
                "Pricing your product"
              ]
            ],
            "prop_1": [
              [
                "https://www.sequoiacap.com/article/pricing-your-product/",
                [
                  [
                    "a",
                    "https://www.sequoiacap.com/article/pricing-your-product/"
                  ]
                ]
              ]
            ]
          },
          "content": [
            "c793ed8a-784b-410e-8e53-e12b50defdee",
            "3777cd2b-9f4b-493b-b356-21f8fee1cb38",
            "de694b1e-cdb6-4465-8b68-d6f16cc9d6a5",
            "a915fdc6-67a7-45f8-8424-a97d7524d01b",
            "dd9437db-dd07-4424-a1a0-cd1810283a72",
            "8752c967-78ac-4e80-917e-c02d484cd601"
          ],
          "created_by": "e0d8983d-9b38-4f83-889d-7d4fc44d4f62",
          "created_time": 1513986008783,
          "last_edited_by": "e894aec7-c5cc-4aa2-8c20-fb602fa7777a",
          "last_edited_time": 1526951920200,
          "parent_id": "2465f591-3856-44c5-b0f9-05b39f57a85c",
          "parent_table": "collection",
          "alive": true
        }
      },
      "c793ed8a-784b-410e-8e53-e12b50defdee": {
        "role": "reader",
        "value": {
          "id": "c793ed8a-784b-410e-8e53-e12b50defdee",
          "version": 29,
          "type": "header",
          "properties": {
            "title": [
              [
                "Notes"
              ]
            ]
          },
          "created_by": "33e41f0b-9c5f-4241-9f62-3e90559ab8f2",
          "created_time": 1511292703109,
          "last_edited_by": "e0d8983d-9b38-4f83-889d-7d4fc44d4f62",
          "last_edited_time": 1513986033434,
          "parent_id": "9f586a24-d648-44ff-a5e2-279e2ca6a0f7",
          "parent_table": "block",
          "alive": true
        }
      },
      "3777cd2b-9f4b-493b-b356-21f8fee1cb38": {
        "role": "reader",
        "value": {
          "id": "3777cd2b-9f4b-493b-b356-21f8fee1cb38",
          "version": 29,
          "type": "bulleted_list",
          "properties": {
            "title": [
              [
                "Incentive to buy = perceived value - price"
              ]
            ]
          },
          "created_by": "33e41f0b-9c5f-4241-9f62-3e90559ab8f2",
          "created_time": 1511292704180,
          "last_edited_by": "e0d8983d-9b38-4f83-889d-7d4fc44d4f62",
          "last_edited_time": 1513986033434,
          "parent_id": "9f586a24-d648-44ff-a5e2-279e2ca6a0f7",
          "parent_table": "block",
          "alive": true
        }
      },
      "de694b1e-cdb6-4465-8b68-d6f16cc9d6a5": {
        "role": "reader",
        "value": {
          "id": "de694b1e-cdb6-4465-8b68-d6f16cc9d6a5",
          "version": 29,
          "type": "bulleted_list",
          "properties": {
            "title": [
              [
                "Incentive to sell = price - cost"
              ]
            ]
          },
          "created_by": "33e41f0b-9c5f-4241-9f62-3e90559ab8f2",
          "created_time": 1511292715156,
          "last_edited_by": "e0d8983d-9b38-4f83-889d-7d4fc44d4f62",
          "last_edited_time": 1513986033434,
          "parent_id": "9f586a24-d648-44ff-a5e2-279e2ca6a0f7",
          "parent_table": "block",
          "alive": true
        }
      },
      "a915fdc6-67a7-45f8-8424-a97d7524d01b": {
        "role": "reader",
        "value": {
          "id": "a915fdc6-67a7-45f8-8424-a97d7524d01b",
          "version": 29,
          "type": "bulleted_list",
          "properties": {
            "title": [
              [
                "Your price tells a story about your service: price serves as a proxy for quality"
              ]
            ]
          },
          "created_by": "33e41f0b-9c5f-4241-9f62-3e90559ab8f2",
          "created_time": 1511292722662,
          "last_edited_by": "e0d8983d-9b38-4f83-889d-7d4fc44d4f62",
          "last_edited_time": 1513986033434,
          "parent_id": "9f586a24-d648-44ff-a5e2-279e2ca6a0f7",
          "parent_table": "block",
          "alive": true
        }
      },
      "dd9437db-dd07-4424-a1a0-cd1810283a72": {
        "role": "reader",
        "value": {
          "id": "dd9437db-dd07-4424-a1a0-cd1810283a72",
          "version": 29,
          "type": "bulleted_list",
          "properties": {
            "title": [
              [
                "Price based on pinch points"
              ]
            ]
          },
          "created_by": "33e41f0b-9c5f-4241-9f62-3e90559ab8f2",
          "created_time": 1511292747303,
          "last_edited_by": "e0d8983d-9b38-4f83-889d-7d4fc44d4f62",
          "last_edited_time": 1513986033434,
          "parent_id": "9f586a24-d648-44ff-a5e2-279e2ca6a0f7",
          "parent_table": "block",
          "alive": true
        }
      },
      "8752c967-78ac-4e80-917e-c02d484cd601": {
        "role": "reader",
        "value": {
          "id": "8752c967-78ac-4e80-917e-c02d484cd601",
          "version": 29,
          "type": "text",
          "created_by": "33e41f0b-9c5f-4241-9f62-3e90559ab8f2",
          "created_time": 1511292669436,
          "last_edited_by": "e0d8983d-9b38-4f83-889d-7d4fc44d4f62",
          "last_edited_time": 1513986033434,
          "parent_id": "9f586a24-d648-44ff-a5e2-279e2ca6a0f7",
          "parent_table": "block",
          "alive": true
        }
      }
    },
    "collection_view": {
      "2ea28d62-6d1f-41eb-a0aa-9dd3de59bf1f": {
        "role": "reader",
        "value": {
          "id": "2ea28d62-6d1f-41eb-a0aa-9dd3de59bf1f",
          "version": 31,
          "type": "table",
          "name": "All",
          "query": {
            "aggregate": [
              {
                "id": "ab670fe2-47af-4991-9016-a5b5784faaf0",
                "type": "title",
                "property": "title",
                "view_type": "table",
                "aggregation_type": "count"
              }
            ],
            "filter_operator": "and"
          },
          "format": {
            "table_wrap": false,
            "table_properties": [
              {
                "width": 331,
                "visible": true,
                "property": "title"
              },
              {
                "width": 249,
                "visible": true,
                "property": "prop_1"
              },
              {
                "width": 169,
                "visible": true,
                "property": "nez|"
              },
              {
                "width": 296,
                "visible": true,
                "property": "V1EY"
              },
              {
                "width": 200,
                "visible": true,
                "property": "F.q]"
              }
            ]
          },
          "parent_id": "0dc73850-a48c-4096-ab71-3eeeda48522e",
          "parent_table": "block",
          "alive": true,
          "page_sort": [
            "220ab47c-751c-4983-a495-b74a995c3289",
            "9f586a24-d648-44ff-a5e2-279e2ca6a0f7",
            "a0e4230b-6f1a-4190-9c5c-52d34638127f",
            "1d52076a-5fd1-4e7c-b529-45a77e3bb429",
            "dff54b05-972a-441b-b103-c7566f3ebc79",
            "c4375727-8eb7-48b1-931c-89162b9d357f",
            "f261b693-4465-4909-a226-bc994319e337",
            "7e1e6f9a-d96b-4feb-ab8a-5f16d2e641f5"
          ]
        }
      },
      "de5db5e1-f30c-4721-8af4-4497130f7eef": {
        "role": "reader",
        "value": {
          "id": "de5db5e1-f30c-4721-8af4-4497130f7eef",
          "version": 31,
          "type": "table",
          "name": "Engineering",
          "query": {
            "filter": [
              {
                "id": "5147f676-e521-4fb7-98e6-70ff7d2affc3",
                "type": "multi_select",
                "value": "Engineering",
                "property": "nez|",
                "comparator": "enum_contains"
              }
            ],
            "aggregate": [
              {
                "id": "267ae676-fcc6-4a44-8af8-495d6f66a39c",
                "type": "title",
                "property": "title",
                "view_type": "table",
                "aggregation_type": "count"
              }
            ],
            "filter_operator": "and"
          },
          "format": {
            "table_properties": [
              {
                "width": 351,
                "visible": true,
                "property": "title"
              },
              {
                "width": 287,
                "visible": true,
                "property": "prop_1"
              },
              {
                "width": 148,
                "visible": true,
                "property": "nez|"
              },
              {
                "width": 297,
                "visible": true,
                "property": "V1EY"
              },
              {
                "width": 200,
                "visible": true,
                "property": "F.q]"
              }
            ]
          },
          "parent_id": "0dc73850-a48c-4096-ab71-3eeeda48522e",
          "parent_table": "block",
          "alive": true
        }
      },
      "1d5c0fc3-e985-46d3-9154-4bc07065fc6d": {
        "role": "reader",
        "value": {
          "id": "1d5c0fc3-e985-46d3-9154-4bc07065fc6d",
          "version": 31,
          "type": "table",
          "name": "Product",
          "query": {
            "filter": [
              {
                "id": "da3289ef-7d49-4c26-b2f9-2cf56b33a7a1",
                "type": "multi_select",
                "value": "Product",
                "property": "nez|",
                "comparator": "enum_contains"
              }
            ],
            "aggregate": [
              {
                "id": "f70168e5-4165-4563-a0d4-380b361c17f9",
                "type": "title",
                "property": "title",
                "view_type": "table",
                "aggregation_type": "count"
              }
            ],
            "filter_operator": "and"
          },
          "format": {
            "table_properties": [
              {
                "width": 289,
                "visible": true,
                "property": "title"
              },
              {
                "width": 319,
                "visible": true,
                "property": "prop_1"
              },
              {
                "width": 174,
                "visible": true,
                "property": "nez|"
              },
              {
                "width": 273,
                "visible": true,
                "property": "V1EY"
              },
              {
                "width": 200,
                "visible": true,
                "property": "F.q]"
              }
            ]
          },
          "parent_id": "0dc73850-a48c-4096-ab71-3eeeda48522e",
          "parent_table": "block",
          "alive": true
        }
      }
    },
    "collection": {
      "2465f591-3856-44c5-b0f9-05b39f57a85c": {
        "role": "reader",
        "value": {
          "id": "2465f591-3856-44c5-b0f9-05b39f57a85c",
          "version": 31,
          "name": [
            [
              "Reading List"
            ]
          ],
          "description": [
            [
              "Click on the '⤢ Open' button in the first column to expand and add notes.\nClick on 'All' to toggle between views."
            ]
          ],
          "schema": {
            "F.q]": {
              "name": "Added By",
              "type": "created_by"
            },
            "V1EY": {
              "name": "Description",
              "type": "text"
            },
            "nez|": {
              "name": "Tags",
              "type": "multi_select",
              "options": [
                {
                  "id": ",-_/",
                  "color": "yellow",
                  "value": "Marketing"
                },
                {
                  "id": "aa27e9da-e5ec-4386-935e-bcee8b05ef32",
                  "color": "orange",
                  "value": "Product"
                },
                {
                  "id": "0ab1932f-c46d-4705-9283-e055e6df65af",
                  "color": "green",
                  "value": "Engineering"
                }
              ]
            },
            "title": {
              "name": "Name",
              "type": "title"
            },
            "prop_1": {
              "name": "Link",
              "type": "url"
            }
          },
          "icon": "👓",
          "cover": "/images/page-cover/rijksmuseum_claesz_1628.jpg",
          "format": {
            "collection_cover_position": 0.9796,
            "collection_page_properties": [
              {
                "visible": true,
                "property": "F.q]"
              },
              {
                "visible": true,
                "property": "V1EY"
              },
              {
                "visible": true,
                "property": "prop_1"
              },
              {
                "visible": true,
                "property": "nez|"
              }
            ]
          },
          "parent_id": "0dc73850-a48c-4096-ab71-3eeeda48522e",
          "parent_table": "block",
          "alive": true
        }
      }
    },
    "space": {}
  }
}