{
  "subtreeRecordMap": {
    "block": {
      "b9e01a67-687f-4779-b351-0241c0549b2d": {
        "role": "reader",
        "value": {
          "id": "b9e01a67-687f-4779-b351-0241c0549b2d",
          "version": 31,
          "type": "page",
          "properties": {
            "title": [
              [
                "Vision & Mission"
              ]
            ]
          },
          "content": [
            "7af478bc-9f28-4e4f-b2f3-e962c8bd51b8",
            "03aab132-e3e9-4cf6-83b6-8992a62f2370",
            "259d31c7-d580-4166-aeb8-ff2b51dabba7",
            "bf495fad-f83c-4085-91b7-296c8d69e804",
            "3425633f-86fe-4994-93d0-284d56566a68",
            "e4c9b549-5c5b-4ec5-939a-bc971a743ddd",
            "d2ee59ee-300c-4417-8512-9ce239a07b88",
            "53b46aef-e3b4-4c67-9b79-f0666cae8828",
            "5832cc42-fe9f-4845-9b4f-d596de96ba87",
            "ce750695-a3d3-4f7c-8332-c73aab3663cf"
          ],
          "format": {
            "page_icon": "🚩",
            "page_cover": "/images/page-cover/nasa_ibm_type_704.jpg",
            "page_cover_position": 0.5851
          },
          "permissions": [
            {
              "role": "editor",
              "type": "space_permission"
            },
            {
              "role": "reader",
              "type": "public_permission"
            }
          ],
          "created_by": "33e41f0b-9c5f-4241-9f62-3e90559ab8f2",
          "created_time": 1506535770556,
          "last_edited_by": "e894aec7-c5cc-4aa2-8c20-fb602fa7777a",
          "last_edited_time": 1527010915864,
          "parent_id": "1f88cc90-92fd-4ce4-bfcd-25daec2ffbbe",
          "parent_table": "space",
          "alive": true,
          "file_ids": [
            "e5940f9e-d078-4e99-90c6-0f4ea0eaa267"
          ]
        }
      },
      "7af478bc-9f28-4e4f-b2f3-e962c8bd51b8": {
        "role": "reader",
        "value": {
          "id": "7af478bc-9f28-4e4f-b2f3-e962c8bd51b8",
          "version": 31,
          "type": "text",
          "properties": {
            "title": [
              [
                "What are we doing, and why are we doing it."
              ]
            ]
          },
          "format": {
            "block_color": "gray"
          },
          "created_by": "33e41f0b-9c5f-4241-9f62-3e90559ab8f2",
          "created_time": 1511210530287,
          "last_edited_by": "e894aec7-c5cc-4aa2-8c20-fb602fa7777a",
          "last_edited_time": 1513818361279,
          "parent_id": "b9e01a67-687f-4779-b351-0241c0549b2d",
          "parent_table": "block",
          "alive": true
        }
      },
      "03aab132-e3e9-4cf6-83b6-8992a62f2370": {
        "role": "reader",
        "value": {
          "id": "03aab132-e3e9-4cf6-83b6-8992a62f2370",
          "version": 31,
          "type": "column_list",
          "content": [
            "df3e4b77-ace4-4993-b548-239742909a37",
            "4c35d4fc-40c2-4978-88c6-54705e10c5d2"
          ],
          "created_by": "33e41f0b-9c5f-4241-9f62-3e90559ab8f2",
          "created_time": 1507050432964,
          "last_edited_by": "e894aec7-c5cc-4aa2-8c20-fb602fa7777a",
          "last_edited_time": 1513818361279,
          "parent_id": "b9e01a67-687f-4779-b351-0241c0549b2d",
          "parent_table": "block",
          "alive": true
        }
      },
      "df3e4b77-ace4-4993-b548-239742909a37": {
        "role": "reader",
        "value": {
          "id": "df3e4b77-ace4-4993-b548-239742909a37",
          "version": 31,
          "type": "column",
          "content": [
            "2d529bae-22f0-458b-829e-e3db83350898",
            "383935dc-4bd7-478a-a9fb-fc5c76ddd32d",
            "63f8abdb-24b0-4b09-855d-0d1dd5f07c0c"
          ],
          "format": {
            "column_ratio": 0.5
          },
          "created_by": "33e41f0b-9c5f-4241-9f62-3e90559ab8f2",
          "created_time": 1507050432964,
          "last_edited_by": "e894aec7-c5cc-4aa2-8c20-fb602fa7777a",
          "last_edited_time": 1513818361279,
          "parent_id": "03aab132-e3e9-4cf6-83b6-8992a62f2370",
          "parent_table": "block",
          "alive": true
        }
      },
      "2d529bae-22f0-458b-829e-e3db83350898": {
        "role": "reader",
        "value": {
          "id": "2d529bae-22f0-458b-829e-e3db83350898",
          "version": 31,
          "type": "sub_header",
          "properties": {
            "title": [
              [
                "Our Vision 👀"
              ]
            ]
          },
          "created_by": "33e41f0b-9c5f-4241-9f62-3e90559ab8f2",
          "created_time": 1507049843490,
          "last_edited_by": "e894aec7-c5cc-4aa2-8c20-fb602fa7777a",
          "last_edited_time": 1513818361279,
          "parent_id": "df3e4b77-ace4-4993-b548-239742909a37",
          "parent_table": "block",
          "alive": true
        }
      },
      "383935dc-4bd7-478a-a9fb-fc5c76ddd32d": {
        "role": "reader",
        "value": {
          "id": "383935dc-4bd7-478a-a9fb-fc5c76ddd32d",
          "version": 31,
          "type": "divider",
          "created_by": "33e41f0b-9c5f-4241-9f62-3e90559ab8f2",
          "created_time": 1507050247944,
          "last_edited_by": "e894aec7-c5cc-4aa2-8c20-fb602fa7777a",
          "last_edited_time": 1513818361279,
          "parent_id": "df3e4b77-ace4-4993-b548-239742909a37",
          "parent_table": "block",
          "alive": true
        }
      },
      "63f8abdb-24b0-4b09-855d-0d1dd5f07c0c": {
        "role": "reader",
        "value": {
          "id": "63f8abdb-24b0-4b09-855d-0d1dd5f07c0c",
          "version": 31,
          "type": "text",
          "properties": {
            "title": [
              [
                "To be the foremost driver that pioneers the latest technological breakthroughs to propel our society toward the perfect blend of science and art."
              ]
            ]
          },
          "created_by": "33e41f0b-9c5f-4241-9f62-3e90559ab8f2",
          "created_time": 1507050382447,
          "last_edited_by": "e894aec7-c5cc-4aa2-8c20-fb602fa7777a",
          "last_edited_time": 1513818361279,
          "parent_id": "df3e4b77-ace4-4993-b548-239742909a37",
          "parent_table": "block",
          "alive": true
        }
      },
      "4c35d4fc-40c2-4978-88c6-54705e10c5d2": {
        "role": "reader",
        "value": {
          "id": "4c35d4fc-40c2-4978-88c6-54705e10c5d2",
          "version": 31,
          "type": "column",
          "content": [
            "0c281a1f-8621-4e01-95e4-8b1ba3505d45",
            "7a05e4b8-bdf3-4206-9bf8-466432b90160",
            "b8fcf546-cf82-41f3-83b0-5d718974f024"
          ],
          "format": {
            "column_ratio": 0.5
          },
          "created_by": "33e41f0b-9c5f-4241-9f62-3e90559ab8f2",
          "created_time": 1507050432964,
          "last_edited_by": "e894aec7-c5cc-4aa2-8c20-fb602fa7777a",
          "last_edited_time": 1513818361279,
          "parent_id": "03aab132-e3e9-4cf6-83b6-8992a62f2370",
          "parent_table": "block",
          "alive": true
        }
      },
      "0c281a1f-8621-4e01-95e4-8b1ba3505d45": {
        "role": "reader",
        "value": {
          "id": "0c281a1f-8621-4e01-95e4-8b1ba3505d45",
          "version": 31,
          "type": "sub_header",
          "properties": {
            "title": [
              [
                "Our Mission 🎯"
              ]
            ]
          },
          "created_by": "33e41f0b-9c5f-4241-9f62-3e90559ab8f2",
          "created_time": 1507049848302,
          "last_edited_by": "e894aec7-c5cc-4aa2-8c20-fb602fa7777a",
          "last_edited_time": 1513818361279,
          "parent_id": "4c35d4fc-40c2-4978-88c6-54705e10c5d2",
          "parent_table": "block",
          "alive": true
        }
      },
      "7a05e4b8-bdf3-4206-9bf8-466432b90160": {
        "role": "reader",
        "value": {
          "id": "7a05e4b8-bdf3-4206-9bf8-466432b90160",
          "version": 31,
          "type": "divider",
          "created_by": "33e41f0b-9c5f-4241-9f62-3e90559ab8f2",
          "created_time": 1507050247944,
          "last_edited_by": "e894aec7-c5cc-4aa2-8c20-fb602fa7777a",
          "last_edited_time": 1513818361279,
          "parent_id": "4c35d4fc-40c2-4978-88c6-54705e10c5d2",
          "parent_table": "block",
          "alive": true
        }
      },
      "b8fcf546-cf82-41f3-83b0-5d718974f024": {
        "role": "reader",
        "value": {
          "id": "b8fcf546-cf82-41f3-83b0-5d718974f024",
          "version": 31,
          "type": "text",
          "properties": {
            "title": [
              [
                "To leverage the latest in computer science and the expertise of invaluable thinkers and doers to make technology widely accessible and usable by all."
              ]
            ]
          },
          "created_by": "33e41f0b-9c5f-4241-9f62-3e90559ab8f2",
          "created_time": 1507050382447,
          "last_edited_by": "e894aec7-c5cc-4aa2-8c20-fb602fa7777a",
          "last_edited_time": 1513818361279,
          "parent_id": "4c35d4fc-40c2-4978-88c6-54705e10c5d2",
          "parent_table": "block",
          "alive": true
        }
      },
      "259d31c7-d580-4166-aeb8-ff2b51dabba7": {
        "role": "reader",
        "value": {
          "id": "259d31c7-d580-4166-aeb8-ff2b51dabba7",
          "version": 31,
          "type": "text",
          "created_by": "4b723c12-e06d-4354-9951-aef27cabf6f1",
          "created_time": 1511919969888,
          "last_edited_by": "e894aec7-c5cc-4aa2-8c20-fb602fa7777a",
          "last_edited_time": 1513818361279,
          "parent_id": "b9e01a67-687f-4779-b351-0241c0549b2d",
          "parent_table": "block",
          "alive": true
        }
      },
      "bf495fad-f83c-4085-91b7-296c8d69e804": {
        "role": "reader",
        "value": {
          "id": "bf495fad-f83c-4085-91b7-296c8d69e804",
          "version": 31,
          "type": "sub_header",
          "properties": {
            "title": [
              [
                "Our Values 🌝"
              ]
            ]
          },
          "created_by": "33e41f0b-9c5f-4241-9f62-3e90559ab8f2",
          "created_time": 1507049853111,
          "last_edited_by": "e894aec7-c5cc-4aa2-8c20-fb602fa7777a",
          "last_edited_time": 1513818361279,
          "parent_id": "b9e01a67-687f-4779-b351-0241c0549b2d",
          "parent_table": "block",
          "alive": true
        }
      },
      "3425633f-86fe-4994-93d0-284d56566a68": {
        "role": "reader",
        "value": {
          "id": "3425633f-86fe-4994-93d0-284d56566a68",
          "version": 31,
          "type": "divider",
          "created_by": "33e41f0b-9c5f-4241-9f62-3e90559ab8f2",
          "created_time": 1507050247944,
          "last_edited_by": "e894aec7-c5cc-4aa2-8c20-fb602fa7777a",
          "last_edited_time": 1513818361279,
          "parent_id": "b9e01a67-687f-4779-b351-0241c0549b2d",
          "parent_table": "block",
          "alive": true
        }
      },
      "e4c9b549-5c5b-4ec5-939a-bc971a743ddd": {
        "role": "reader",
        "value": {
          "id": "e4c9b549-5c5b-4ec5-939a-bc971a743ddd",
          "version": 31,
          "type": "bulleted_list",
          "properties": {
            "title": [
              [
                "Obsession to Details"
              ]
            ]
          },
          "created_by": "33e41f0b-9c5f-4241-9f62-3e90559ab8f2",
          "created_time": 1507050279515,
          "last_edited_by": "e894aec7-c5cc-4aa2-8c20-fb602fa7777a",
          "last_edited_time": 1513818361279,
          "parent_id": "b9e01a67-687f-4779-b351-0241c0549b2d",
          "parent_table": "block",
          "alive": true
        }
      },
      "d2ee59ee-300c-4417-8512-9ce239a07b88": {
        "role": "reader",
        "value": {
          "id": "d2ee59ee-300c-4417-8512-9ce239a07b88",
          "version": 31,
          "type": "bulleted_list",
          "properties": {
            "title": [
              [
                "Curiosity"
              ]
            ]
          },
          "created_by": "33e41f0b-9c5f-4241-9f62-3e90559ab8f2",
          "created_time": 1507050313028,
          "last_edited_by": "e894aec7-c5cc-4aa2-8c20-fb602fa7777a",
          "last_edited_time": 1513818361279,
          "parent_id": "b9e01a67-687f-4779-b351-0241c0549b2d",
          "parent_table": "block",
          "alive": true
        }
      },
      "53b46aef-e3b4-4c67-9b79-f0666cae8828": {
        "role": "reader",
        "value": {
          "id": "53b46aef-e3b4-4c67-9b79-f0666cae8828",
          "version": 31,
          "type": "bulleted_list",
          "properties": {
            "title": [
              [
                "Bias for Action"
              ]
            ]
          },
          "created_by": "33e41f0b-9c5f-4241-9f62-3e90559ab8f2",
          "created_time": 1507050344839,
          "last_edited_by": "e894aec7-c5cc-4aa2-8c20-fb602fa7777a",
          "last_edited_time": 1513818361279,
          "parent_id": "b9e01a67-687f-4779-b351-0241c0549b2d",
          "parent_table": "block",
          "alive": true
        }
      },
      "5832cc42-fe9f-4845-9b4f-d596de96ba87": {
        "role": "reader",
        "value": {
          "id": "5832cc42-fe9f-4845-9b4f-d596de96ba87",
          "version": 31,
          "type": "bulleted_list",
          "properties": {
            "title": [
              [
                "Ownership"
              ]
            ]
          },
          "created_by": "33e41f0b-9c5f-4241-9f62-3e90559ab8f2",
          "created_time": 1507050279515,
          "last_edited_by": "e894aec7-c5cc-4aa2-8c20-fb602fa7777a",
          "last_edited_time": 1513818361279,
          "parent_id": "b9e01a67-687f-4779-b351-0241c0549b2d",
          "parent_table": "block",
          "alive": true
        }
      },
      "ce750695-a3d3-4f7c-8332-c73aab3663cf": {
        "role": "reader",
        "value": {
          "id": "ce750695-a3d3-4f7c-8332-c73aab3663cf",
          "version": 31,
          "type": "bulleted_list",
          "properties": {
            "title": [
              [
                "Altruism"
              ]
            ]
          },
          "created_by": "33e41f0b-9c5f-4241-9f62-3e90559ab8f2",
          "created_time": 1507050312339,
          "last_edited_by": "e894aec7-c5cc-4aa2-8c20-fb602fa7777a",
          "last_edited_time": 1513818361279,
          "parent_id": "b9e01a67-687f-4779-b351-0241c0549b2d",
          "parent_table": "block",
          "alive": true
        }
      }
    },
    "space": {}
  }
}